Text Analytics Boston useR
…
# use LDA, set k = 4
# Find the sum of words in each Document ensure no zeros
rowTotals <- apply(ngramDTM , 1, sum) 
dtmClean   <- ngramDTM[rowTotals> 0, ]

reviews_lda <- LDA(dtmClean, k = 4, control = list(seed = 1234))
reviews_lda

## A LDA_VEM topic model with 4 topics.

# check topics
reviews_topics <- tidy(reviews_lda, matrix = "beta")
reviews_topics

## # A tibble: 15,008 x 3
##    topic term                   beta
##    <int> <chr>                 <dbl>
##  1     1 absolute must      3.72e-44
##  2     2 absolute must      3.72e-44
##  3     3 absolute must      3.72e-44
##  4     4 absolute must      1.00e- 3
##  5     1 absolutely amazing 0.      
##  6     2 absolutely amazing 3.72e-44
##  7     3 absolutely amazing 0.      
##  8     4 absolutely amazing 2.00e- 3
##  9     1 absolutely back    3.72e-44
## 10     2 absolutely back    9.56e- 4
## # ... with 14,998 more rows
…
